\relax 
\@writefile{toc}{\contentsline {chapter}{\@textofLoF }{iv}{}\protected@file@percent }
\citation{ICHEP:2020}
\@writefile{toc}{\contentsline {chapter}{\@textofLoT }{x}{}\protected@file@percent }
\citation{Ariga:2019ufm}
\citation{Abreu:2019yak}
\@writefile{toc}{\contentsline {chapter}{\numberline {\@textofChapter \ 1:}Introduction}{1}{}\protected@file@percent }
\@writefile{lof}{\addvspace {5\p@ }}
\@writefile{lot}{\addvspace {5\p@ }}
\citation{Abreu:2019yak}
\citation{Baltay:1988au}
\citation{Aartsen:2013bka}
\citation{Kodama:2007aa}
\citation{Agafonova:2018dfy}
\citation{Li:2017dbe}
\@writefile{lof}{\contentsline {figure}{\numberline {1.1}{\ignorespaces Existing measurements of the neutrino-nucleon charged-current cross-sections for the three flavours of neutrino ($\nu _e,\nu _\mu ,\nu _\tau $), along with the expected incident neutrino spectra on FASER$\nu $.}}{2}{}\protected@file@percent }
\newlabel{fig:ExistingMeasurements}{{1.1}{2}}
\citation{Novaes:1999yn}
\citation{PhysRevD.98.030001}
\@writefile{toc}{\contentsline {chapter}{\numberline {\@textofChapter \ 2:}Theory background}{4}{}\protected@file@percent }
\@writefile{lof}{\addvspace {5\p@ }}
\@writefile{lot}{\addvspace {5\p@ }}
\@writefile{toc}{\contentsline {section}{\numberline {2.1}The Standard Model}{4}{}\protected@file@percent }
\@writefile{lot}{\contentsline {table}{\numberline {2.1}{\ignorespaces Particle content of the SM.}}{5}{}\protected@file@percent }
\newlabel{tab:SM}{{2.1}{5}}
\citation{PhysRevD.98.030001}
\citation{Rajasekaran:2016ujt}
\citation{Reines:1960pr}
\citation{Ismail:2020yqc}
\@writefile{toc}{\contentsline {section}{\numberline {2.2}Neutrino Interactions}{7}{}\protected@file@percent }
\citation{Abreu:2019yak}
\@writefile{lof}{\contentsline {figure}{\numberline {2.1}{\ignorespaces Feynman diagrams for neutrino-nucleon neutral current (left) and charged current (right) interactions.}}{8}{}\protected@file@percent }
\newlabel{fig:CCNC}{{2.1}{8}}
\@writefile{lof}{\contentsline {figure}{\numberline {2.2}{\ignorespaces One possible Feynman diagram for neutrino-induced pion production.}}{8}{}\protected@file@percent }
\newlabel{fig:pionproduction}{{2.2}{8}}
\@writefile{lot}{\contentsline {table}{\numberline {2.2}{\ignorespaces List of common Standard Model decay modes which may contribute to neutrino production.}}{9}{}\protected@file@percent }
\newlabel{tab:decaymodes}{{2.2}{9}}
\@writefile{lof}{\contentsline {figure}{\numberline {2.3}{\ignorespaces Feynman diagrams for dominant production mechanisms for $\nu _e$, $\nu _\mu $, and $\nu _\tau $.}}{10}{}\protected@file@percent }
\newlabel{fig:nu_production}{{2.3}{10}}
\@writefile{lof}{\contentsline {figure}{\numberline {2.4}{\ignorespaces Feynman diagrams for electron bremsstrahlung.}}{10}{}\protected@file@percent }
\newlabel{fig:brem}{{2.4}{10}}
\@writefile{toc}{\contentsline {section}{\numberline {2.3}Electron interactions}{10}{}\protected@file@percent }
\citation{PhysRevD.98.030001}
\citation{Danev_2016}
\citation{Chatterjee:1976kd}
\@writefile{toc}{\contentsline {section}{\numberline {2.4}Muon interactions}{11}{}\protected@file@percent }
\@writefile{lof}{\contentsline {figure}{\numberline {2.5}{\ignorespaces Schematic illustration of a muon-induced knock-on electron production event.}}{11}{}\protected@file@percent }
\newlabel{fig:deltaraydiagram}{{2.5}{11}}
\@writefile{lof}{\contentsline {figure}{\numberline {2.6}{\ignorespaces Feynman diagram for a $\nu _\tau $ CC event producing a $\tau $ which promptly decays to a pion.}}{12}{}\protected@file@percent }
\newlabel{fig:tauCC}{{2.6}{12}}
\citation{2013IJMPA..2830035M}
\@writefile{toc}{\contentsline {chapter}{\numberline {\@textofChapter \ 3:}Experimental Apparatus}{13}{}\protected@file@percent }
\@writefile{lof}{\addvspace {5\p@ }}
\@writefile{lot}{\addvspace {5\p@ }}
\@writefile{toc}{\contentsline {section}{\numberline {3.1}The Large Hadron Collider}{13}{}\protected@file@percent }
\@writefile{lof}{\contentsline {figure}{\numberline {3.1}{\ignorespaces Schematic diagram of the Large Hadron Collider, as well as the four major detectors ATLAS, CMS, ALICE, and LHCb positioned along the collider ring and the infrastructure to produce the high-energy proton beams. }}{13}{}\protected@file@percent }
\newlabel{fig:LHC}{{3.1}{13}}
\citation{Adam:2002asd}
\citation{2013IJMPA..2830035M}
\citation{Nielsen:2011kc}
\citation{LopezSola:2019xjb}
\citation{Cristinziani:2020wvy}
\citation{Fabbrichesi:2020wbt}
\citation{FASER:2021cpr}
\citation{Abreu:2019yak}
\@writefile{toc}{\contentsline {section}{\numberline {3.2}The FASER Spectrometer}{14}{}\protected@file@percent }
\@writefile{lof}{\contentsline {figure}{\numberline {3.2}{\ignorespaces Schematic diagram of the region downstream of the ATLAS IP. The vertical axis is scaled disproportionately for clarity. Charged particles are deflected by the LHC magnets while neutral particles continue on a straight line until they are absorbed by the TAN neutral particle absorber. Neutrinos, dark photons, and other new physics particles may continue uninterrupted, travelling approximately $480$ m until they reach FASER.}}{15}{}\protected@file@percent }
\newlabel{fig:atlasdownstream}{{3.2}{15}}
\citation{Ariga:2018pin}
\citation{RAL}
\citation{FASER:2021ljd}
\@writefile{lof}{\contentsline {figure}{\numberline {3.3}{\ignorespaces Schematic diagram illustrating the placement and orientation of FASER relative to the collider ring of the LHC.}}{16}{}\protected@file@percent }
\newlabel{fig:atlastunnel}{{3.3}{16}}
\@writefile{lof}{\contentsline {figure}{\numberline {3.4}{\ignorespaces Computer-generated model of the FASER spectrometer (red), FASER$\nu $ emulsion detector (green), IFT (white), and calorimeter (purple). The tracking stations are indicated with red arrows. The masses of each detector element are displayed in parentheses.}}{16}{}\protected@file@percent }
\newlabel{fig:faser}{{3.4}{16}}
\citation{Abreu:2019yak}
\@writefile{lof}{\contentsline {figure}{\numberline {3.5}{\ignorespaces FASER spectrometer installed in the TI12 maintenance tunnel of the LHC for commissioning as of 5 February 2021.}}{17}{}\protected@file@percent }
\newlabel{fig:fasercommissioning}{{3.5}{17}}
\@writefile{lof}{\contentsline {figure}{\numberline {3.6}{\ignorespaces (left) SCT module; (right) Eight SCT modules assembled into one FASER tracking plane.}}{18}{}\protected@file@percent }
\newlabel{fig:sct_module_plane}{{3.6}{18}}
\@writefile{lof}{\contentsline {figure}{\numberline {3.7}{\ignorespaces One of the three SCT tracking stations assembled from three tracking planes.}}{19}{}\protected@file@percent }
\newlabel{fig:SCTmetrology}{{3.7}{19}}
\citation{Jackson:2005ec}
\citation{Abreu:2019yak}
\citation{Abreu:2019yak}
\citation{Abreu:2020ddv}
\citation{Abreu:2019yak}
\citation{Abreu:2019yak}
\@writefile{toc}{\contentsline {section}{\numberline {3.3}The Interface Tracker}{21}{}\protected@file@percent }
\@writefile{toc}{\contentsline {section}{\numberline {3.4}The FASER$\nu $ Emulsion Detector}{21}{}\protected@file@percent }
\@writefile{lof}{\contentsline {figure}{\numberline {3.8}{\ignorespaces (far-left) Rectangular section of an emulsion film; (center-left) schematic diagram of emulsion film showing two emulsion layers on either side of a 200 $\mu $m plastic base; (center-right) electron microscope photograph of AgBr crystals in emulsion film; (far-right) image of the emulsion track left by a secondary particle emerging from a 10 GeV $\pi $.}}{22}{}\protected@file@percent }
\newlabel{fig:emulsionfilm}{{3.8}{22}}
\@writefile{lof}{\contentsline {figure}{\numberline {3.9}{\ignorespaces Schematic diagram of support structure that will contain the FASER$\nu $ emulsion detector.}}{23}{}\protected@file@percent }
\newlabel{fig:fasernusupport}{{3.9}{23}}
\@writefile{lof}{\contentsline {figure}{\numberline {3.10}{\ignorespaces Rendering of the placement of the FASER spectrometer and the FASER$\nu $ emulsion detector in the TI12 tunnel. The ATLAS IP is off-screen to the right.}}{24}{}\protected@file@percent }
\newlabel{fig:fnuplacement}{{3.10}{24}}
\newlabel{fig:fnuplacement}{{3.4}{24}}
\citation{ICHEP:2020}
\citation{ICHEP:2020}
\citation{Roesler:2000he}
\citation{Abreu:2020ddv}
\citation{Pierog:2013ria}
\citation{Ostapchenko:2004ss}
\citation{Engel:2019dsg}
\citation{Sjostrand:2007gs}
\@writefile{lot}{\contentsline {table}{\numberline {3.1}{\ignorespaces Estimated number of neutrino/antineutrino CC interactions in FASER$\nu $ for each of the three flavours of neutrino. \cite  {ICHEP:2020}}}{25}{}\protected@file@percent }
\newlabel{tab:counts}{{3.1}{25}}
\citation{Abreu:2019yak}
\@writefile{toc}{\contentsline {section}{\numberline {3.5}The Pilot Detector}{27}{}\protected@file@percent }
\@writefile{lof}{\contentsline {figure}{\numberline {3.11}{\ignorespaces The two tungsten (W) and lead (Pb) modules of the FASER$\nu $ pilot detector placed in TI12 in September-October 2018. }}{27}{}\protected@file@percent }
\newlabel{fig:pilot}{{3.11}{27}}
\citation{FASER:2021mtu}
\@writefile{toc}{\contentsline {chapter}{\numberline {\@textofChapter \ 4:}Tracker and Emulsion Datasets}{29}{}\protected@file@percent }
\@writefile{lof}{\addvspace {5\p@ }}
\@writefile{lot}{\addvspace {5\p@ }}
\@writefile{toc}{\contentsline {section}{\numberline {4.1}Tracker Performance Dataset}{29}{}\protected@file@percent }
\@writefile{toc}{\contentsline {section}{\numberline {4.2}Pilot Data Sample}{29}{}\protected@file@percent }
\@writefile{toc}{\contentsline {section}{\numberline {4.3}Pilot Detector MC Simulation Sample}{31}{}\protected@file@percent }
\@writefile{lof}{\contentsline {figure}{\numberline {4.1}{\ignorespaces Energy spectra of $\mu ^+$ (red) and $\mu ^-$ (blue) arriving at the FASER$\nu $ pilot detector.}}{32}{}\protected@file@percent }
\newlabel{fig:muplusmuminusenergy}{{4.1}{32}}
\@writefile{lof}{\contentsline {figure}{\numberline {4.2}{\ignorespaces Spectra of $\tan  \theta _x$ and $\tan  \theta _y$ for $\mu ^+$ (red) and $\mu ^-$ (blue) arriving at the FASER$\nu $ pilot detector.}}{32}{}\protected@file@percent }
\newlabel{fig:muplusmuminustxty}{{4.2}{32}}
\citation{Dabrowski:2003sk}
\@writefile{toc}{\contentsline {chapter}{\numberline {\@textofChapter \ 5:}Tracking and Reconstruction with FASER}{34}{}\protected@file@percent }
\@writefile{lof}{\addvspace {5\p@ }}
\@writefile{lot}{\addvspace {5\p@ }}
\@writefile{toc}{\contentsline {section}{\numberline {5.1}Tracking in FASER}{34}{}\protected@file@percent }
\@writefile{toc}{\contentsline {subsection}{\numberline {5.1.1}Digitization}{34}{}\protected@file@percent }
\@writefile{lof}{\contentsline {figure}{\numberline {5.1}{\ignorespaces Bitstream format for readout from the SCT modules in the FASER spectrometer.}}{35}{}\protected@file@percent }
\newlabel{fig:bitstream}{{5.1}{35}}
\@writefile{toc}{\contentsline {subsection}{\numberline {5.1.2}Clustering}{35}{}\protected@file@percent }
\@writefile{toc}{\contentsline {subsection}{\numberline {5.1.3}Space-Point Formation}{35}{}\protected@file@percent }
\@writefile{lof}{\contentsline {figure}{\numberline {5.2}{\ignorespaces Schematic diagram of hits being combined into hit clusters on one side of a given SCT module. The 3 green hit strips are combined into a single hit cluster, as are the two red hit strips and the single blue hit strip.}}{36}{}\protected@file@percent }
\newlabel{fig:clustering}{{5.2}{36}}
\@writefile{lof}{\contentsline {figure}{\numberline {5.3}{\ignorespaces Schematic diagram of hit clusters on opposite sides of a given SCT module to produce a space-point.}}{37}{}\protected@file@percent }
\newlabel{fig:SPformation}{{5.3}{37}}
\@writefile{lof}{\contentsline {figure}{\numberline {5.4}{\ignorespaces Schematic diagram of space points being used for track-finding and track-fitting using a Kalman filter.}}{37}{}\protected@file@percent }
\newlabel{fig:trackfinding}{{5.4}{37}}
\@writefile{toc}{\contentsline {subsection}{\numberline {5.1.4}Track-finding}{37}{}\protected@file@percent }
\@writefile{toc}{\contentsline {subsection}{\numberline {5.1.5}Track-fitting with the combinatorial Kalman filter}{38}{}\protected@file@percent }
\@writefile{lof}{\contentsline {figure}{\numberline {5.5}{\ignorespaces Schematic of helix track parameters.}}{38}{}\protected@file@percent }
\newlabel{fig:trackparams}{{5.5}{38}}
\@writefile{toc}{\contentsline {section}{\numberline {5.2}Estimation of tracker performance}{40}{}\protected@file@percent }
\newlabel{eqn:resop}{{5.9}{40}}
\@writefile{toc}{\contentsline {chapter}{\numberline {\@textofChapter \ 6:}Electron Clustering and Energy Reconstruction}{42}{}\protected@file@percent }
\@writefile{lof}{\addvspace {5\p@ }}
\@writefile{lot}{\addvspace {5\p@ }}
\@writefile{toc}{\contentsline {section}{\numberline {6.1}Muon Subtraction}{42}{}\protected@file@percent }
\@writefile{lof}{\contentsline {figure}{\numberline {6.1}{\ignorespaces Illustration of four basetracks (nodes A-D) for step 5. The links between basetracks are deleted in the sequence shown at right.}}{43}{}\protected@file@percent }
\newlabel{fig:DeleteMultiple}{{6.1}{43}}
\@writefile{lof}{\contentsline {figure}{\numberline {6.2}{\ignorespaces Visualization of the position (above) and angular (below) triangles whose areas are used to evaluate the credibility of a link.}}{44}{}\protected@file@percent }
\newlabel{fig:Triangles}{{6.2}{44}}
\@writefile{lof}{\contentsline {figure}{\numberline {6.3}{\ignorespaces Example illustration of the track-linking procedure. After all suitable basetrack links are made (left), the procedure to remove multiple links is applied and the most credible path is selected (middle). The straight tracks are then reconnected (right).}}{44}{}\protected@file@percent }
\newlabel{fig:tracklinking}{{6.3}{44}}
\citation{Kobayashi_2012}
\@writefile{toc}{\contentsline {section}{\numberline {6.2}Electron clustering algorithm}{46}{}\protected@file@percent }
\@writefile{lof}{\contentsline {figure}{\numberline {6.4}{\ignorespaces Diagram showing the electron clustering procedure, starting with the seed basetrack (blue), constructing the cone (green), selecting basetracks within the cone, extrapolating and applying cuts on $\Delta r$ and $\Delta \theta $ , and adding basetracks to the electron cluster (black). Basetracks which fail the matching criteria (red) are not clustered.}}{47}{}\protected@file@percent }
\newlabel{fig:clusteringalgorithm}{{6.4}{47}}
\@writefile{lof}{\contentsline {figure}{\numberline {6.5}{\ignorespaces Example reconstruction of electron cluster with background contamination from other clusters (left), and clustered electron after purification (right).}}{48}{}\protected@file@percent }
\newlabel{fig:recoclssigbg}{{6.5}{48}}
\@writefile{lof}{\contentsline {figure}{\numberline {6.6}{\ignorespaces Plot of projections of clustered basetracks to emulsion film of seed basetrack.}}{49}{}\protected@file@percent }
\newlabel{fig:projectclsbts}{{6.6}{49}}
\@writefile{lof}{\contentsline {figure}{\numberline {6.7}{\ignorespaces Event display of multiple reconstructed electron clusters purified with IP cut.}}{50}{}\protected@file@percent }
\newlabel{fig:purifiedclusters}{{6.7}{50}}
\@writefile{toc}{\contentsline {section}{\numberline {6.3}Electron energy regression}{50}{}\protected@file@percent }
\@writefile{lof}{\contentsline {figure}{\numberline {6.8}{\ignorespaces Plots of total number of clustered basetracks $N_\mathrm  {total}$ (left) and maximum clustered basetrack multiplicity in a single layer $N_\mathrm  {max}$ (right) as functions of energy.}}{51}{}\protected@file@percent }
\newlabel{fig:ntotalnmax}{{6.8}{51}}
\@writefile{lof}{\contentsline {figure}{\numberline {6.9}{\ignorespaces Plot of the depth (emulsion plate index) of the shower maximum $iz_\mathrm  {max}$ as a function of energy.}}{52}{}\protected@file@percent }
\newlabel{fig:izmax}{{6.9}{52}}
\citation{FASER:2021mtu}
\@writefile{toc}{\contentsline {chapter}{\numberline {\@textofChapter \ 7:}Pilot Run Analysis}{53}{}\protected@file@percent }
\@writefile{lof}{\addvspace {5\p@ }}
\@writefile{lot}{\addvspace {5\p@ }}
\@writefile{toc}{\contentsline {section}{\numberline {7.1}Comparison of raw basetrack parameters between MC and data}{55}{}\protected@file@percent }
\@writefile{toc}{\contentsline {section}{\numberline {7.2}Muon identification}{55}{}\protected@file@percent }
\@writefile{lof}{\contentsline {figure}{\numberline {7.1}{\ignorespaces (top-left) Histogram of $x$ for emulsion hits in truth MC simulation superposed with $x$ for basetracks in one $2\times 2$ subvolume block of the pilot run data samples. (rop-right) Histogram of $y$ for emulsion hits in truth MC simulation superposed with $y$ for basetracks in one $2\times 2$ subvolume block of the pilot run data samples. (bottom-left) Histogram of $\tan  \theta _x$ for emulsion hits in truth MC simulation superposed with $\tan  \theta _x$ for basetracks in pilot run data samples. (bottom-right) Histogram of $\tan  \theta _y$ for emulsion hits in truth MC simulation superposed with $\tan  \theta _y$ for basetracks in pilot run data samples.}}{56}{}\protected@file@percent }
\newlabel{fig:datamc}{{7.1}{56}}
\@writefile{toc}{\contentsline {section}{\numberline {7.3}Electron clustering sample preparation}{58}{}\protected@file@percent }
\@writefile{lof}{\contentsline {figure}{\numberline {7.2}{\ignorespaces Two-dimensional event display showing $xy$- (left), $xz$- (middle), and $yz$-projections (right) of all basetracks within $(200\,\mu \mathrm  {m})^2$ region centered on $(x,y)=(50,50)\,\mathrm  {mm}$. The lengths of the basetracks has been extrapolated to $1\,\mathrm  {mm}$ to show the relationship between basetracks in successive layers.}}{59}{}\protected@file@percent }
\newlabel{fig:alltracks}{{7.2}{59}}
\@writefile{lof}{\contentsline {figure}{\numberline {7.3}{\ignorespaces Two-dimensional event display showing $xy$- (left), $xz$- (middle), and $yz$-projections (right) of all basetracks that are components of reconstructed straight tracks within $(200\,\mu \mathrm  {m})^2$ region centered on $(x,y)=(50,50)\,\mathrm  {mm}$.}}{59}{}\protected@file@percent }
\newlabel{fig:straighttracks}{{7.3}{59}}
\@writefile{lof}{\contentsline {figure}{\numberline {7.4}{\ignorespaces Two-dimensional event display showing $xy$- (left), $xz$- (middle), and $yz$-projections (right) of all basetracks that are components of reconstructed straight tracks within $(200\,\mu \mathrm  {m})^2$ region centered on $(x,y)=(50,50)\,\mathrm  {mm}$ and that have passed the further cuts to be classified as penetrating tracks.}}{59}{}\protected@file@percent }
\newlabel{fig:muontracks}{{7.4}{59}}
\@writefile{lof}{\contentsline {figure}{\numberline {7.5}{\ignorespaces Two-dimensional event display showing $xy$- (left), $xz$- (middle), and $yz$-projections (right) of all basetracks within $(200\,\mu \mathrm  {m})^2$ region centered on $(x,y)=(50,50)\,\mathrm  {mm}$ that are not part of penetrating straight tracks.}}{60}{}\protected@file@percent }
\newlabel{fig:electrontracks}{{7.5}{60}}
\@writefile{lof}{\contentsline {figure}{\numberline {7.6}{\ignorespaces Event display of all clustered electrons within $(20\,\mathrm  {mm})^2$ area centered on $(x,y)=(50,50)\,\mathrm  {mm}$.}}{61}{}\protected@file@percent }
\@writefile{toc}{\contentsline {section}{\numberline {7.4}Cluster purification in the pilot data}{62}{}\protected@file@percent }
\@writefile{lof}{\contentsline {figure}{\numberline {7.7}{\ignorespaces Distribution of impact parameters for clustered basetracks belonging to the same truth cluster as the seed basetrack (orange) and clustered basetracks belonging to a different truth cluster from the seed basetrack (blue).}}{62}{}\protected@file@percent }
\newlabel{fig:IPcomparison}{{7.7}{62}}
\@writefile{lof}{\contentsline {figure}{\numberline {7.8}{\ignorespaces Scatter plot of number of clustered $e^+/e^-$ basetracks as a function of the truth electron energy (blue points) along with a fit (orange line). Note that the number of basetracks grows approximately linearly with energy.}}{63}{}\protected@file@percent }
\newlabel{fig:btsvsE}{{7.8}{63}}
\@writefile{toc}{\contentsline {section}{\numberline {7.5}Electron energy regression with the pilot data}{63}{}\protected@file@percent }
\@writefile{lof}{\contentsline {figure}{\numberline {7.9}{\ignorespaces Electron energy resolution for one-dimensional energy regression using the total number of clustered, purified basetracks $N_\mathrm  {total}$. Note that below $E_\mathrm  {truth}\approx 300\,\mathrm  {GeV}$ the resolution is very poor and the results unreliable.}}{64}{}\protected@file@percent }
\newlabel{fig:electronreso1}{{7.9}{64}}
\@writefile{lof}{\contentsline {figure}{\numberline {7.10}{\ignorespaces Comparison of number of truth basetracks per layer (orange) and number of clustered basetracks per layer (blue).}}{64}{}\protected@file@percent }
\newlabel{fig:truthclustercomparison}{{7.10}{64}}
\@writefile{lof}{\contentsline {figure}{\numberline {7.11}{\ignorespaces Distribution of muon energy losses (left) and distribution of energies of produced knock-on electrons (right) in the pilot run simulation. Note that the electron energy distribution is shifted to the left as compared with the muon energy loss distribution.}}{65}{}\protected@file@percent }
\newlabel{fig:eloss}{{7.11}{65}}
\@writefile{lof}{\contentsline {figure}{\numberline {7.12}{\ignorespaces Histogram of opening angle between knock-on electron and parent muon for electrons with energies $E>10\,\mathrm  {GeV}$ (blue) and $E>100\,\mathrm  {GeV}$ (orange).}}{66}{}\protected@file@percent }
\newlabel{fig:openingangle}{{7.12}{66}}
\@writefile{lof}{\contentsline {figure}{\numberline {7.13}{\ignorespaces Overlapping histograms showing the comparison of reconstructed electron energies in the GEANT4 MC simulation (blue) and in the FASERnu pilot run data (orange).}}{66}{}\protected@file@percent }
\newlabel{fig:finalcomparison}{{7.13}{66}}
\@writefile{toc}{\contentsline {section}{\numberline {7.6}Comparison of clustered electron showers between MC and data}{67}{}\protected@file@percent }
\@writefile{lof}{\contentsline {figure}{\numberline {7.14}{\ignorespaces Scatter plot of actual angular spectra $(\theta _x,\theta _y)$ of reconstructed basetracks in the pilot run.}}{69}{}\protected@file@percent }
\newlabel{fig:pilotBTangles}{{7.14}{69}}
\@writefile{lof}{\contentsline {figure}{\numberline {7.15}{\ignorespaces Comparison of histograms of $\tan  \theta _x$ and $\tan  \theta _y$ for simulation (solid color) and pilot data (error bars).}}{70}{}\protected@file@percent }
\newlabel{fig:simvalidation}{{7.15}{70}}
\@writefile{lof}{\contentsline {figure}{\numberline {7.16}{\ignorespaces Comparison of histograms of $x$ and $y$ for simulation (solid color) and pilot data (error bars). The separation is due to spreading of simulation hits from inside the subvolume to outside, not balanced by spreading from outside the subvolume to inside (as with the pilot detector).}}{70}{}\protected@file@percent }
\newlabel{fig:sigbgxy}{{7.16}{70}}
\@writefile{lof}{\contentsline {figure}{\numberline {7.17}{\ignorespaces Comparison of histograms of $iz$ for simulation (solid color) and pilot data (error bars). The inconsistency does not affect the data/MC comparison, see main text.}}{71}{}\protected@file@percent }
\newlabel{fig:sigbgiz}{{7.17}{71}}
\@writefile{lof}{\contentsline {figure}{\numberline {7.18}{\ignorespaces OpenGL GEANT4 event display of a muon (blue) which initiates a delta-ray (green) at a vertex (red).}}{71}{}\protected@file@percent }
\newlabel{fig:deltarayevent}{{7.18}{71}}
\@writefile{toc}{\contentsline {section}{\numberline {7.7}Electron clustering}{72}{}\protected@file@percent }
\@writefile{lof}{\contentsline {figure}{\numberline {7.19}{\ignorespaces Sample of truth knock-on electron clusters (left) and reconstructed electron clusters (right) from MC sample.}}{72}{}\protected@file@percent }
\newlabel{fig:clusteringeventdisplay}{{7.19}{72}}
\@writefile{lof}{\contentsline {figure}{\numberline {7.20}{\ignorespaces Number of clustered electron showers as a function of plate index $iz$ (left) and of reconstructed electron energy (right).}}{73}{}\protected@file@percent }
\newlabel{fig:datavsmc}{{7.20}{73}}
\@writefile{toc}{\contentsline {chapter}{\numberline {\@textofChapter \ 8:}Results and Conclusion}{74}{}\protected@file@percent }
\@writefile{lof}{\addvspace {5\p@ }}
\@writefile{lot}{\addvspace {5\p@ }}
\citation{jsaps}
\citation{jsdpf}
\citation{FASER:2021mtu}
\citation{FASER:2021cpr}
\citation{FASER:2021ljd}
\@writefile{toc}{\contentsline {chapter}{\numberline {\@textofChapter \ 9:}Outlook}{76}{}\protected@file@percent }
\@writefile{lof}{\addvspace {5\p@ }}
\@writefile{lot}{\addvspace {5\p@ }}
\citation{*}
\bibstyle{unsrt}
\bibdata{uwthesis}
\bibcite{Ariga:2019ufm}{1}
\bibcite{Abreu:2019yak}{2}
\bibcite{Baltay:1988au}{3}
\bibcite{Aartsen:2013bka}{4}
\bibcite{Kodama:2007aa}{5}
\bibcite{Agafonova:2018dfy}{6}
\bibcite{Li:2017dbe}{7}
\bibcite{Novaes:1999yn}{8}
\bibcite{PhysRevD.98.030001}{9}
\bibcite{Rajasekaran:2016ujt}{10}
\bibcite{Reines:1960pr}{11}
\bibcite{Ismail:2020yqc}{12}
\bibcite{Danev_2016}{13}
\bibcite{Chatterjee:1976kd}{14}
\@writefile{toc}{\contentsline {chapter}{\@textofBIB }{78}{}\protected@file@percent }
\bibcite{2013IJMPA..2830035M}{15}
\bibcite{Adam:2002asd}{16}
\bibcite{Nielsen:2011kc}{17}
\bibcite{LopezSola:2019xjb}{18}
\bibcite{Cristinziani:2020wvy}{19}
\bibcite{Fabbrichesi:2020wbt}{20}
\bibcite{FASER:2021cpr}{21}
\bibcite{Ariga:2018pin}{22}
\bibcite{RAL}{23}
\bibcite{FASER:2021ljd}{24}
\bibcite{Jackson:2005ec}{25}
\bibcite{Abreu:2020ddv}{26}
\bibcite{ICHEP:2020}{27}
\bibcite{Roesler:2000he}{28}
\bibcite{Pierog:2013ria}{29}
\bibcite{Ostapchenko:2004ss}{30}
\bibcite{Engel:2019dsg}{31}
\bibcite{Sjostrand:2007gs}{32}
\bibcite{FASER:2021mtu}{33}
\bibcite{Dabrowski:2003sk}{34}
\bibcite{Kobayashi_2012}{35}
\bibcite{jsaps}{36}
\bibcite{jsdpf}{37}
\bibcite{Ariga:2018zuc}{38}
\bibcite{Aad:2012tfa}{39}
\bibcite{Freese:2017idy}{40}
\bibcite{Zwicky:1933gu}{41}
\bibcite{Eidemuller:1999mx}{42}
\bibcite{Guzey:2005vz}{43}
\bibcite{Greiner:1993qp}{44}
\bibcite{Pich:2005mk}{45}
\bibcite{Bednyakov:2007pz}{46}
\bibcite{Banados:2016zim}{47}
\bibcite{Laudisio:2017}{48}
\bibcite{Juget:2009}{49}
\bibcite{ai2019acts}{50}
\bibcite{Adams:2016ekx}{51}
\bibcite{Spano:2013}{52}
\@writefile{toc}{\contentsline {chapter}{\numberline {\@textofAppendix \ A:}Helix Tracker Reconstruction using FaserMC}{82}{}\protected@file@percent }
\@writefile{lof}{\addvspace {5\p@ }}
\@writefile{lot}{\addvspace {5\p@ }}
\@writefile{toc}{\contentsline {subsection}{\numberline {A.0.1}Naive Track Fitting}{82}{}\protected@file@percent }
\@writefile{lof}{\contentsline {figure}{\numberline {A.1}{\ignorespaces A schematic diagram showing the hits registered by a $\mu ^+$ in the FASER spectrometer as well as the hybrid track that the particle takes while travelling through it. The tracking stations are shown in grey, the hits are shown in blue, and the direction of the nonzero magnetic field in the dipole volumes between the tracking stations is shown in magenta. The black track segments are linear while the coloured segments are helical.}}{83}{}\protected@file@percent }
\newlabel{fig:fitting}{{A.1}{83}}
\@writefile{lof}{\contentsline {figure}{\numberline {A.2}{\ignorespaces Illustration of a helix and its projection to the plane transverse to its axis, along with the track radius $R$, the initial transverse position $(x_0,y_0)$, the initial azimuthal angle $\phi _0$, and the helix pitch $\lambda $.}}{84}{}\protected@file@percent }
\newlabel{fig:helixparams}{{A.2}{84}}
\@writefile{lof}{\contentsline {figure}{\numberline {A.3}{\ignorespaces (left) $p_T$ resolution of FASER spectrometer using the helix tracker and the legacy MC simulation; (right) $p_T$ resolution of FASER spectrometer using the improved hybrid tracker.}}{85}{}\protected@file@percent }
\newlabel{fig:pTreso}{{A.3}{85}}
\@writefile{lof}{\contentsline {figure}{\numberline {A.4}{\ignorespaces Resolutions for the helix fitting parameters (top-left) $x_0$, (top-right) $y_0$, (bottom-left) $\phi _0$, and (bottom-right) $\lambda $ using the hybrid helix/linear tracker and the legacy MC simulation. Data points indicate resolution for tracks reconstructed without the IFT (red) and with the IFT (black).}}{86}{}\protected@file@percent }
\newlabel{fig:reso}{{A.4}{86}}
\citation{Abreu:2019yak}
\citation{Abreu:2020ddv}
\@writefile{toc}{\contentsline {chapter}{\numberline {\@textofAppendix \ B:}Neutrino Signal / Background Signatures}{87}{}\protected@file@percent }
\@writefile{lof}{\addvspace {5\p@ }}
\@writefile{lot}{\addvspace {5\p@ }}
\@writefile{toc}{\contentsline {section}{\numberline {B.1}Electron neutrino CC events}{87}{}\protected@file@percent }
\@writefile{lof}{\contentsline {figure}{\numberline {B.1}{\ignorespaces Lepton signatures for each of the three neutrino-nucleon CC interactions.}}{88}{}\protected@file@percent }
\newlabel{fig:lepSig}{{B.1}{88}}
\@writefile{lof}{\contentsline {figure}{\numberline {B.2}{\ignorespaces Feynman diagram for a simplified electromagnetic shower. The incident electron emits a photon, which splits into an electron-positron pair, each of which emit further photons.}}{89}{}\protected@file@percent }
\newlabel{fig:emshowerdiagram}{{B.2}{89}}
\@writefile{lof}{\contentsline {figure}{\numberline {B.3}{\ignorespaces Feynman diagram of electron neutrino CC event, which initiates a hadronic shower by stimulating emission of a virtual gluon which decays into a neutral pion.}}{89}{}\protected@file@percent }
\newlabel{fig:hadshower}{{B.3}{89}}
\@writefile{toc}{\contentsline {section}{\numberline {B.2}Muon neutrino CC events}{90}{}\protected@file@percent }
\@writefile{toc}{\contentsline {section}{\numberline {B.3}Tau neutrino CC events}{90}{}\protected@file@percent }
\citation{Abreu:2019yak}
\citation{PhysRevD.98.030001}
\@writefile{toc}{\contentsline {section}{\numberline {B.4}Background Processes}{91}{}\protected@file@percent }
\@writefile{lof}{\contentsline {figure}{\numberline {B.4}{\ignorespaces Expected distribution of background positive (red) and negative (blue) muons incident on FASER$\nu $.}}{92}{}\protected@file@percent }
\newlabel{fig:fasernumuonbg}{{B.4}{92}}
\@writefile{lof}{\contentsline {figure}{\numberline {B.5}{\ignorespaces Energy spectra for emerging photons (left) and $e^+/e^-$ (right) emerging from incident $\mu ^-$.}}{93}{}\protected@file@percent }
\newlabel{fig:bgem}{{B.5}{93}}
\@writefile{lof}{\contentsline {figure}{\numberline {B.6}{\ignorespaces Energy spectra for emerging neutrons (top-left), antineutrons (top-right), $K_S$ (bottom-left), and $K_L$ (bottom-right) emerging from incident $\mu ^-$.}}{94}{}\protected@file@percent }
\newlabel{fig:bgneutralhadrons}{{B.6}{94}}
\@writefile{lof}{\contentsline {figure}{\numberline {B.7}{\ignorespaces Energy spectra for emerging $\pi ^+$ (top-left), and $\pi ^-$ (top-right), $K^+$ (bottom-left), and $K^-$ (bottom-right) emerging from incident $\mu ^-$.}}{95}{}\protected@file@percent }
\newlabel{fig:bgmesons}{{B.7}{95}}
\@writefile{lof}{\contentsline {figure}{\numberline {B.8}{\ignorespaces Table of expected background induced by muons and signal particles passing through FASER$\nu $. }}{96}{}\protected@file@percent }
\newlabel{fig:tablebg}{{B.8}{96}}
\@writefile{lof}{\contentsline {figure}{\numberline {B.9}{\ignorespaces Depth profile for $10^4$ electrons (left) and negative muons (right) at 1 TeV energy and at normal incidence on FASER$\nu $.}}{96}{}\protected@file@percent }
\newlabel{fig:mudepthprofile}{{B.9}{96}}
\@writefile{lof}{\contentsline {figure}{\numberline {B.10}{\ignorespaces Signal-background separation for $10^4$ electrons (left) and negative muons (right) at 1 TeV energy with cuts $E>100$ MeV, $\tan  \theta <0.05$, and $x^2+y^2<(200\,\mu \mathrm  {m})^2$.}}{97}{}\protected@file@percent }
\newlabel{fig:sigbgsep}{{B.10}{97}}
\citation{Laudisio:2017}
\@writefile{toc}{\contentsline {chapter}{\numberline {\@textofAppendix \ C:}Truth-Leve Simulation Study of Electromagnetic Showers}{98}{}\protected@file@percent }
\@writefile{lof}{\addvspace {5\p@ }}
\@writefile{lot}{\addvspace {5\p@ }}
\@writefile{toc}{\contentsline {section}{\numberline {C.1}Characteristics of Electromagnetic Showers}{98}{}\protected@file@percent }
\@writefile{toc}{\contentsline {section}{\numberline {C.2}Electron Energy Reconstruction with Total Track Count}{99}{}\protected@file@percent }
\@writefile{lof}{\contentsline {figure}{\numberline {C.1}{\ignorespaces Plots of the total number of tracks as a function of electron energy along with the fitted linear regression.}}{99}{}\protected@file@percent }
\newlabel{fig:nvse}{{C.1}{99}}
\@writefile{toc}{\contentsline {section}{\numberline {C.3}Electron Energy Reconstruction with Maximum Track Depth and Multiplicity}{100}{}\protected@file@percent }
\@writefile{lof}{\contentsline {figure}{\numberline {C.2}{\ignorespaces Plots of the maximum track multiplicity in a single layer (left), and the depth of the shower maximum (right), as a function of electron energy. A linear regression is fitted to the track multiplicity, while a logarithmic regression is fitted to the depth of the shower maximum.}}{101}{}\protected@file@percent }
\newlabel{fig:maxvse}{{C.2}{101}}
\@writefile{toc}{\contentsline {section}{\numberline {C.4}Electron Energy Reconstruction with the Full Shower Profile}{102}{}\protected@file@percent }
\citation{Adams:2016ekx}
\citation{Abreu:2020ddv}
\@writefile{toc}{\contentsline {chapter}{\numberline {\@textofAppendix \ D:}Tracker and Tracker+IFT Performance}{106}{}\protected@file@percent }
\@writefile{lof}{\addvspace {5\p@ }}
\@writefile{lot}{\addvspace {5\p@ }}
\@writefile{lof}{\contentsline {figure}{\numberline {D.1}{\ignorespaces Plot of the charge misidentification rate as a function of incident muon energy.}}{107}{}\protected@file@percent }
\newlabel{fig:misid}{{D.1}{107}}
\citation{Spano:2013}
\newlabel{eqn:unfolding}{{D.1}{108}}
\@writefile{toc}{\contentsline {section}{\numberline {D.1}Tracker performance}{109}{}\protected@file@percent }
\@writefile{lof}{\contentsline {figure}{\numberline {D.2}{\ignorespaces Tracker $x$ position resolution (top-left), $y$ position resolution (top-right) and fractional momentum resolution (bottom-left) versus truth energy, with fitted curves.}}{110}{}\protected@file@percent }
\newlabel{fig:resoplots}{{D.2}{110}}
\citation{Abreu:2019yak}
\@writefile{toc}{\contentsline {chapter}{\numberline {\@textofAppendix \ E:}IFT Track Matching between FASER Tracker and FASER$\nu $ Emulsion Detector}{112}{}\protected@file@percent }
\@writefile{lof}{\addvspace {5\p@ }}
\@writefile{lot}{\addvspace {5\p@ }}
\@writefile{lof}{\contentsline {figure}{\numberline {E.1}{\ignorespaces CAD model of the FASER$\nu $ emulsion detector and the IFT of the FASER spectrometer, with distance relevant for track matching shown in green.}}{112}{}\protected@file@percent }
\newlabel{fig:CAD}{{E.1}{112}}
\citation{Abreu:2019yak}
\citation{Abreu:2019yak}
\@writefile{lof}{\contentsline {figure}{\numberline {E.2}{\ignorespaces $\epsilon _\mathrm  {vertex ID}$ as a function of incident neutrino energy.}}{114}{}\protected@file@percent }
\newlabel{fig:vertexidefficiency}{{E.2}{114}}
\@writefile{lof}{\contentsline {figure}{\numberline {E.3}{\ignorespaces Muon neutrino-antineutrino CC cross-section sensitivity as a function of energy. Error bars show statistical (dark blue) and statistical$+$systematic (light blue) uncertainties.}}{115}{}\protected@file@percent }
\newlabel{fig:xssensitivityfinal}{{E.3}{115}}
\gdef \@abspage@last{132}
